{
	"@context": [
		{
			"@vocab": "http://schema.org/"
		},
		"https://www.w3.org/ns/hydra/core#"
	],
	"@id": "/root",
	"@type": [
		"Collection"
	],
	"manages": {
		"object": "schema:Type 1",
		"property": "rdf:type"
	},
	"member": [
		{
			"@context": [
				{
					"embedded2": {
						"@type": "@id"
					}
				},
				{
					"linked1": {
						"@type": "@id"
					}
				},
				{
					"linked2": {
						"@type": "@id"
					}
				},
				{
					"relatedCollection1": {
						"@type": "@id"
					}
				},
				{
					"relatedCollection2": {
						"@type": "@id"
					}
				}
			],
			"@id": "/model/1",
			"@type": [
				"Type 1",
				"Type 2"
			],
			"applicationRelativeURL1": "/first",
			"binary1": "/model/1/binary1",
			"binary2": "/model/1/binary2",
			"boolean1": true,
			"boolean2": false,
			"booleanList1": [
				true,
				true,
				false,
				false
			],
			"booleanList2": [
				true,
				false,
				true,
				false
			],
			"date1": "2016-06-15T09:00Z",
			"date2": "2017-04-03T18:36Z",
			"embedded1": {
				"@context": [
					{
						"linked": {
							"@type": "@id"
						}
					},
					{
						"relatedCollection": {
							"@type": "@id"
						}
					}
				],
				"@id": "/first-inner-model/first",
				"@type": [
					"Type"
				],
				"binary": "/first-inner-model/first/binary",
				"boolean": true,
				"booleanList": [
					true,
					false
				],
				"embedded": {
					"@context": [
						{
							"embedded": {
								"@type": "@id"
							}
						},
						{
							"linked": {
								"@type": "@id"
							}
						},
						{
							"relatedCollection": {
								"@type": "@id"
							}
						}
					],
					"@id": "/second-inner-model/first",
					"@type": [
						"Type"
					],
					"binary": "/second-inner-model/first/binary",
					"boolean": false,
					"booleanList": [
						true
					],
					"embedded": "/third-inner-model/first",
					"link": "community.liferay.com",
					"linked": "/third-inner-model/second",
					"number": 2017,
					"numberList": [
						1
					],
					"relatedCollection": "/second/first/models",
					"string": "A string",
					"stringList": [
						"a"
					]
				},
				"link": "www.liferay.com",
				"linked": "/second-inner-model/second",
				"localizedString": "Translated",
				"nestedList": {
					"@type": [
						"Collection"
					],
					"manages": {
						"object": "schema:Type 7",
						"property": "rdf:type"
					},
					"member": [
						{
							"@type": [
								"Type 7"
							],
							"number1": 2018,
							"string1": "id 1",
							"string2": "string3"
						},
						{
							"@type": [
								"Type 7"
							],
							"number1": 2018,
							"string1": "id 2",
							"string2": "string3"
						}
					],
					"totalItems": 2
				},
				"number": 42,
				"numberList": [
					1,
					2
				],
				"relatedCollection": "/first/first/models",
				"string": "A string",
				"stringList": [
					"a",
					"b"
				]
			},
			"embedded2": "/first-inner-model/second",
			"link1": "www.liferay.com",
			"link2": "community.liferay.com",
			"linked1": "/first-inner-model/third",
			"linked2": "/first-inner-model/fourth",
			"localizedString1": "Translated 1",
			"localizedString2": "Translated 2",
			"nested1": {
				"@type": [
					"Type 3"
				],
				"number1": 2017,
				"string1": "id 1",
				"string2": "string2"
			},
			"nested2": {
				"@context": [
					{
						"linked3": {
							"@type": "@id"
						}
					}
				],
				"@type": [
					"Type 4"
				],
				"linked3": "/third-inner-model/fifth",
				"nested3": {
					"@type": [
						"Type 5"
					],
					"string1": "id 3"
				},
				"number1": 42,
				"string1": "1"
			},
			"nestedList": {
				"@type": [
					"Collection"
				],
				"manages": {
					"object": "schema:Type 6",
					"property": "rdf:type"
				},
				"member": [
					{
						"@type": [
							"Type 6"
						],
						"nested4": {
							"@type": [
								"Type 7"
							],
							"nestedList": {
								"@type": [
									"Collection"
								],
								"manages": {
									"object": "schema:Type 8",
									"property": "rdf:type"
								},
								"member": [
									{
										"@type": [
											"Type 8"
										],
										"number1": 2017
									},
									{
										"@type": [
											"Type 8"
										],
										"number1": 2017
									}
								],
								"totalItems": 2
							},
							"string1": "id 4"
						},
						"number1": 2017,
						"string1": "id 1",
						"string2": "string2"
					},
					{
						"@type": [
							"Type 6"
						],
						"nested4": {
							"@type": [
								"Type 7"
							],
							"nestedList": {
								"@type": [
									"Collection"
								],
								"manages": {
									"object": "schema:Type 8",
									"property": "rdf:type"
								},
								"member": [
									{
										"@type": [
											"Type 8"
										],
										"number1": 2017
									},
									{
										"@type": [
											"Type 8"
										],
										"number1": 2017
									}
								],
								"totalItems": 2
							},
							"string1": "id 4"
						},
						"number1": 2017,
						"string1": "id 2",
						"string2": "string2"
					}
				],
				"totalItems": 2
			},
			"number1": 2017,
			"number2": 42,
			"numberList1": [
				1,
				2,
				3,
				4,
				5
			],
			"numberList2": [
				6,
				7,
				8,
				9,
				10
			],
			"relatedCollection1": "/root/1/models",
			"relatedCollection2": "/root/1/models",
			"relativeURL1": "/first",
			"relativeURL2": "/second",
			"string1": "Live long and prosper",
			"string2": "Hypermedia",
			"stringList1": [
				"a",
				"b",
				"c",
				"d",
				"e"
			],
			"stringList2": [
				"f",
				"g",
				"h",
				"i",
				"j"
			]
		},
		{
			"@context": [
				{
					"embedded2": {
						"@type": "@id"
					}
				},
				{
					"linked1": {
						"@type": "@id"
					}
				},
				{
					"linked2": {
						"@type": "@id"
					}
				},
				{
					"relatedCollection1": {
						"@type": "@id"
					}
				},
				{
					"relatedCollection2": {
						"@type": "@id"
					}
				}
			],
			"@id": "/model/2",
			"@type": [
				"Type 1",
				"Type 2"
			],
			"applicationRelativeURL1": "/first",
			"binary1": "/model/2/binary1",
			"binary2": "/model/2/binary2",
			"boolean1": true,
			"boolean2": false,
			"booleanList1": [
				true,
				true,
				false,
				false
			],
			"booleanList2": [
				true,
				false,
				true,
				false
			],
			"date1": "2016-06-15T09:00Z",
			"date2": "2017-04-03T18:36Z",
			"embedded1": {
				"@context": [
					{
						"linked": {
							"@type": "@id"
						}
					},
					{
						"relatedCollection": {
							"@type": "@id"
						}
					}
				],
				"@id": "/first-inner-model/first",
				"@type": [
					"Type"
				],
				"binary": "/first-inner-model/first/binary",
				"boolean": true,
				"booleanList": [
					true,
					false
				],
				"embedded": {
					"@context": [
						{
							"embedded": {
								"@type": "@id"
							}
						},
						{
							"linked": {
								"@type": "@id"
							}
						},
						{
							"relatedCollection": {
								"@type": "@id"
							}
						}
					],
					"@id": "/second-inner-model/first",
					"@type": [
						"Type"
					],
					"binary": "/second-inner-model/first/binary",
					"boolean": false,
					"booleanList": [
						true
					],
					"embedded": "/third-inner-model/first",
					"link": "community.liferay.com",
					"linked": "/third-inner-model/second",
					"number": 2017,
					"numberList": [
						1
					],
					"relatedCollection": "/second/first/models",
					"string": "A string",
					"stringList": [
						"a"
					]
				},
				"link": "www.liferay.com",
				"linked": "/second-inner-model/second",
				"localizedString": "Translated",
				"nestedList": {
					"@type": [
						"Collection"
					],
					"manages": {
						"object": "schema:Type 7",
						"property": "rdf:type"
					},
					"member": [
						{
							"@type": [
								"Type 7"
							],
							"number1": 2018,
							"string1": "id 1",
							"string2": "string3"
						},
						{
							"@type": [
								"Type 7"
							],
							"number1": 2018,
							"string1": "id 2",
							"string2": "string3"
						}
					],
					"totalItems": 2
				},
				"number": 42,
				"numberList": [
					1,
					2
				],
				"relatedCollection": "/first/first/models",
				"string": "A string",
				"stringList": [
					"a",
					"b"
				]
			},
			"embedded2": "/first-inner-model/second",
			"link1": "www.liferay.com",
			"link2": "community.liferay.com",
			"linked1": "/first-inner-model/third",
			"linked2": "/first-inner-model/fourth",
			"localizedString1": "Translated 1",
			"localizedString2": "Translated 2",
			"nested1": {
				"@type": [
					"Type 3"
				],
				"number1": 2017,
				"string1": "id 1",
				"string2": "string2"
			},
			"nested2": {
				"@context": [
					{
						"linked3": {
							"@type": "@id"
						}
					}
				],
				"@type": [
					"Type 4"
				],
				"linked3": "/third-inner-model/fifth",
				"nested3": {
					"@type": [
						"Type 5"
					],
					"string1": "id 3"
				},
				"number1": 42,
				"string1": "2"
			},
			"nestedList": {
				"@type": [
					"Collection"
				],
				"manages": {
					"object": "schema:Type 6",
					"property": "rdf:type"
				},
				"member": [
					{
						"@type": [
							"Type 6"
						],
						"nested4": {
							"@type": [
								"Type 7"
							],
							"nestedList": {
								"@type": [
									"Collection"
								],
								"manages": {
									"object": "schema:Type 8",
									"property": "rdf:type"
								},
								"member": [
									{
										"@type": [
											"Type 8"
										],
										"number1": 2017
									},
									{
										"@type": [
											"Type 8"
										],
										"number1": 2017
									}
								],
								"totalItems": 2
							},
							"string1": "id 4"
						},
						"number1": 2017,
						"string1": "id 1",
						"string2": "string2"
					},
					{
						"@type": [
							"Type 6"
						],
						"nested4": {
							"@type": [
								"Type 7"
							],
							"nestedList": {
								"@type": [
									"Collection"
								],
								"manages": {
									"object": "schema:Type 8",
									"property": "rdf:type"
								},
								"member": [
									{
										"@type": [
											"Type 8"
										],
										"number1": 2017
									},
									{
										"@type": [
											"Type 8"
										],
										"number1": 2017
									}
								],
								"totalItems": 2
							},
							"string1": "id 4"
						},
						"number1": 2017,
						"string1": "id 2",
						"string2": "string2"
					}
				],
				"totalItems": 2
			},
			"number1": 2017,
			"number2": 42,
			"numberList1": [
				1,
				2,
				3,
				4,
				5
			],
			"numberList2": [
				6,
				7,
				8,
				9,
				10
			],
			"relatedCollection1": "/root/2/models",
			"relatedCollection2": "/root/2/models",
			"relativeURL1": "/first",
			"relativeURL2": "/second",
			"string1": "Live long and prosper",
			"string2": "Hypermedia",
			"stringList1": [
				"a",
				"b",
				"c",
				"d",
				"e"
			],
			"stringList2": [
				"f",
				"g",
				"h",
				"i",
				"j"
			]
		},
		{
			"@context": [
				{
					"embedded2": {
						"@type": "@id"
					}
				},
				{
					"linked1": {
						"@type": "@id"
					}
				},
				{
					"linked2": {
						"@type": "@id"
					}
				},
				{
					"relatedCollection1": {
						"@type": "@id"
					}
				},
				{
					"relatedCollection2": {
						"@type": "@id"
					}
				}
			],
			"@id": "/model/3",
			"@type": [
				"Type 1",
				"Type 2"
			],
			"applicationRelativeURL1": "/first",
			"binary1": "/model/3/binary1",
			"binary2": "/model/3/binary2",
			"boolean1": true,
			"boolean2": false,
			"booleanList1": [
				true,
				true,
				false,
				false
			],
			"booleanList2": [
				true,
				false,
				true,
				false
			],
			"date1": "2016-06-15T09:00Z",
			"date2": "2017-04-03T18:36Z",
			"embedded1": {
				"@context": [
					{
						"linked": {
							"@type": "@id"
						}
					},
					{
						"relatedCollection": {
							"@type": "@id"
						}
					}
				],
				"@id": "/first-inner-model/first",
				"@type": [
					"Type"
				],
				"binary": "/first-inner-model/first/binary",
				"boolean": true,
				"booleanList": [
					true,
					false
				],
				"embedded": {
					"@context": [
						{
							"embedded": {
								"@type": "@id"
							}
						},
						{
							"linked": {
								"@type": "@id"
							}
						},
						{
							"relatedCollection": {
								"@type": "@id"
							}
						}
					],
					"@id": "/second-inner-model/first",
					"@type": [
						"Type"
					],
					"binary": "/second-inner-model/first/binary",
					"boolean": false,
					"booleanList": [
						true
					],
					"embedded": "/third-inner-model/first",
					"link": "community.liferay.com",
					"linked": "/third-inner-model/second",
					"number": 2017,
					"numberList": [
						1
					],
					"relatedCollection": "/second/first/models",
					"string": "A string",
					"stringList": [
						"a"
					]
				},
				"link": "www.liferay.com",
				"linked": "/second-inner-model/second",
				"localizedString": "Translated",
				"nestedList": {
					"@type": [
						"Collection"
					],
					"manages": {
						"object": "schema:Type 7",
						"property": "rdf:type"
					},
					"member": [
						{
							"@type": [
								"Type 7"
							],
							"number1": 2018,
							"string1": "id 1",
							"string2": "string3"
						},
						{
							"@type": [
								"Type 7"
							],
							"number1": 2018,
							"string1": "id 2",
							"string2": "string3"
						}
					],
					"totalItems": 2
				},
				"number": 42,
				"numberList": [
					1,
					2
				],
				"relatedCollection": "/first/first/models",
				"string": "A string",
				"stringList": [
					"a",
					"b"
				]
			},
			"embedded2": "/first-inner-model/second",
			"link1": "www.liferay.com",
			"link2": "community.liferay.com",
			"linked1": "/first-inner-model/third",
			"linked2": "/first-inner-model/fourth",
			"localizedString1": "Translated 1",
			"localizedString2": "Translated 2",
			"nested1": {
				"@type": [
					"Type 3"
				],
				"number1": 2017,
				"string1": "id 1",
				"string2": "string2"
			},
			"nested2": {
				"@context": [
					{
						"linked3": {
							"@type": "@id"
						}
					}
				],
				"@type": [
					"Type 4"
				],
				"linked3": "/third-inner-model/fifth",
				"nested3": {
					"@type": [
						"Type 5"
					],
					"string1": "id 3"
				},
				"number1": 42,
				"string1": "3"
			},
			"nestedList": {
				"@type": [
					"Collection"
				],
				"manages": {
					"object": "schema:Type 6",
					"property": "rdf:type"
				},
				"member": [
					{
						"@type": [
							"Type 6"
						],
						"nested4": {
							"@type": [
								"Type 7"
							],
							"nestedList": {
								"@type": [
									"Collection"
								],
								"manages": {
									"object": "schema:Type 8",
									"property": "rdf:type"
								},
								"member": [
									{
										"@type": [
											"Type 8"
										],
										"number1": 2017
									},
									{
										"@type": [
											"Type 8"
										],
										"number1": 2017
									}
								],
								"totalItems": 2
							},
							"string1": "id 4"
						},
						"number1": 2017,
						"string1": "id 1",
						"string2": "string2"
					},
					{
						"@type": [
							"Type 6"
						],
						"nested4": {
							"@type": [
								"Type 7"
							],
							"nestedList": {
								"@type": [
									"Collection"
								],
								"manages": {
									"object": "schema:Type 8",
									"property": "rdf:type"
								},
								"member": [
									{
										"@type": [
											"Type 8"
										],
										"number1": 2017
									},
									{
										"@type": [
											"Type 8"
										],
										"number1": 2017
									}
								],
								"totalItems": 2
							},
							"string1": "id 4"
						},
						"number1": 2017,
						"string1": "id 2",
						"string2": "string2"
					}
				],
				"totalItems": 2
			},
			"number1": 2017,
			"number2": 42,
			"numberList1": [
				1,
				2,
				3,
				4,
				5
			],
			"numberList2": [
				6,
				7,
				8,
				9,
				10
			],
			"relatedCollection1": "/root/3/models",
			"relatedCollection2": "/root/3/models",
			"relativeURL1": "/first",
			"relativeURL2": "/second",
			"string1": "Live long and prosper",
			"string2": "Hypermedia",
			"stringList1": [
				"a",
				"b",
				"c",
				"d",
				"e"
			],
			"stringList2": [
				"f",
				"g",
				"h",
				"i",
				"j"
			]
		}
	],
	"numberOfItems": 3,
	"operation": [
		{
			"@id": "_:root/create",
			"@type": [
				"CreateAction",
				"Operation"
			],
			"method": "POST",
			"target": "/root"
		}
	],
	"totalItems": 9,
	"view": {
		"@id": "/root?page=2&per_page=3",
		"@type": [
			"PartialCollectionView"
		],
		"first": "/root?page=1&per_page=3",
		"last": "/root?page=3&per_page=3",
		"next": "/root?page=3&per_page=3",
		"previous": "/root?page=1&per_page=3"
	}
}