{
	"_embedded": {
		"Type 1": [
			{
				"_embedded": {
					"embedded1": {
						"_embedded": {
							"embedded": {
								"_links": {
									"binary": { "href": "localhost/o/api/b/second-inner-model/first/binary" },
									"embedded": { "href": "localhost/o/api/p/third-inner-model/first" },
									"link": { "href": "community.liferay.com" },
									"linked": { "href": "localhost/o/api/p/third-inner-model/second" },
									"relatedCollection": { "href": "localhost/o/api/p/second-inner-model/first/models" },
									"self": { "href": "localhost/o/api/p/second-inner-model/first" }
								},
								"boolean": false,
								"booleanList": [true],
								"number": 2017,
								"numberList": [1],
								"string": "A string",
								"stringList": ["a"]
							}
						},
						"_links": {
							"binary": { "href": "localhost/o/api/b/first-inner-model/first/binary" },
							"link": { "href": "www.liferay.com" },
							"linked": { "href": "localhost/o/api/p/second-inner-model/second" },
							"relatedCollection": { "href": "localhost/o/api/p/first-inner-model/first/models" },
							"self": { "href": "localhost/o/api/p/first-inner-model/first" }
						},
						"boolean": true,
						"booleanList": [true, false],
						"localizedString": "Translated",
						"number": 42,
						"numberList": [1, 2],
						"string": "A string",
						"stringList": ["a", "b"]
					},
					"nested1": {
						"number1": 2017,
						"string1": "id 1",
						"string2": "string2"
					},
					"nested2": {
						"_embedded": {
							"nested3": {
								"string1": "id 3"
							}
						},
						"_links": {
							"linked3": { "href": "localhost/o/api/p/third-inner-model/fifth" }
						},
						"number1": 42,
						"string1": "1"
					},
					"nestedList": {
						"_embedded": [
							{
								"_embedded": {
									"nested4": {
										"string1": "id 4"
									},
									"nestedList": {
										"_embedded": [
											{
												"number1": 2017
											}, {
												"number1": 2017
											}
										],
										"total": 2
									}
								},
								"number1": 2017,
								"string1": "id 1",
								"string2": "string2"
							}, {
								"number1": 2017,
								"string1": "id 2",
								"string2": "string2",
								"_embedded": {
									"nested4": {
										"string1": "id 4"
									},
									"nestedList": {
										"_embedded": [
											{
												"number1": 2017
											}, {
												"number1": 2017
											}
										],
										"total": 2
									}
								}
							}
						],
						"total": 2
					}
				},
				"_links": {
					"binary1": { "href": "localhost/o/api/b/model/1/binary1" },
					"binary2": { "href": "localhost/o/api/b/model/1/binary2" },
					"embedded2": { "href": "localhost/o/api/p/first-inner-model/second" },
					"link1": { "href": "www.liferay.com" },
					"link2": { "href": "community.liferay.com" },
					"linked1": { "href": "localhost/o/api/p/first-inner-model/third" },
					"linked2": { "href": "localhost/o/api/p/first-inner-model/fourth" },
					"relatedCollection1": { "href": "localhost/o/api/p/model/1/models" },
					"relatedCollection2": { "href": "localhost/o/api/p/model/1/models" },
					"self": { "href": "localhost/o/api/p/model/1" }
				},
				"applicationRelativeURL1": "localhost/o/api/first",
				"boolean1": true,
				"boolean2": false,
				"booleanList1": [true, true, false, false],
				"booleanList2": [true, false, true, false],
				"date1": "2016-06-15T09:00Z",
				"date2": "2017-04-03T18:36Z",
				"localizedString1": "Translated 1",
				"localizedString2": "Translated 2",
				"number1": 2017,
				"number2": 42,
				"numberList1": [1, 2, 3, 4, 5],
				"numberList2": [6, 7, 8, 9, 10],
				"relativeURL1": "localhost/first",
				"relativeURL2": "localhost/second",
				"string1": "Live long and prosper",
				"string2": "Hypermedia",
				"stringList1": ["a", "b", "c", "d", "e"],
				"stringList2": ["f", "g", "h", "i", "j"]
			},
			{
				"_embedded": {
					"embedded1": {
						"_embedded": {
							"embedded": {
								"_links": {
									"binary": { "href": "localhost/o/api/b/second-inner-model/first/binary" },
									"embedded": { "href": "localhost/o/api/p/third-inner-model/first" },
									"link": { "href": "community.liferay.com" },
									"linked": { "href": "localhost/o/api/p/third-inner-model/second" },
									"relatedCollection": { "href": "localhost/o/api/p/second-inner-model/first/models" },
									"self": { "href": "localhost/o/api/p/second-inner-model/first" }
								},
								"boolean": false,
								"booleanList": [true],
								"number": 2017,
								"numberList": [1],
								"string": "A string",
								"stringList": ["a"]
							}
						},
						"_links": {
							"binary": { "href": "localhost/o/api/b/first-inner-model/first/binary" },
							"link": { "href": "www.liferay.com" },
							"linked": { "href": "localhost/o/api/p/second-inner-model/second" },
							"relatedCollection": { "href": "localhost/o/api/p/first-inner-model/first/models" },
							"self": { "href": "localhost/o/api/p/first-inner-model/first" }
						},
						"boolean": true,
						"booleanList": [true, false],
						"localizedString": "Translated",
						"number": 42,
						"numberList": [1, 2],
						"string": "A string",
						"stringList": ["a", "b"]
					},
					"nested1": {
						"number1": 2017,
						"string1": "id 1",
						"string2": "string2"
					},
					"nested2": {
						"_embedded": {
							"nested3": {
								"string1": "id 3"
							}
						},
						"_links": {
							"linked3": { "href": "localhost/o/api/p/third-inner-model/fifth" }
						},
						"number1": 42,
						"string1": "2"
					},
					"nestedList": {
						"_embedded": [
							{
								"_embedded": {
									"nested4": {
										"string1": "id 4"
									},
									"nestedList": {
										"_embedded": [
											{
												"number1": 2017
											}, {
												"number1": 2017
											}
										],
										"total": 2
									}
								},
								"number1": 2017,
								"string1": "id 1",
								"string2": "string2"
							}, {
								"number1": 2017,
								"string1": "id 2",
								"string2": "string2",
								"_embedded": {
									"nested4": {
										"string1": "id 4"
									},
									"nestedList": {
										"_embedded": [
											{
												"number1": 2017
											}, {
												"number1": 2017
											}
										],
										"total": 2
									}
								}
							}
						],
						"total": 2
					}
				},
				"_links": {
					"binary1": { "href": "localhost/o/api/b/model/2/binary1" },
					"binary2": { "href": "localhost/o/api/b/model/2/binary2" },
					"embedded2": { "href": "localhost/o/api/p/first-inner-model/second" },
					"link1": { "href": "www.liferay.com" },
					"link2": { "href": "community.liferay.com" },
					"linked1": { "href": "localhost/o/api/p/first-inner-model/third" },
					"linked2": { "href": "localhost/o/api/p/first-inner-model/fourth" },
					"relatedCollection1": { "href": "localhost/o/api/p/model/2/models" },
					"relatedCollection2": { "href": "localhost/o/api/p/model/2/models" },
					"self": { "href": "localhost/o/api/p/model/2" }
				},
				"applicationRelativeURL1": "localhost/o/api/first",
				"boolean1": true,
				"boolean2": false,
				"booleanList1": [true, true, false, false],
				"booleanList2": [true, false, true, false],
				"date1": "2016-06-15T09:00Z",
				"date2": "2017-04-03T18:36Z",
				"localizedString1": "Translated 1",
				"localizedString2": "Translated 2",
				"number1": 2017,
				"number2": 42,
				"numberList1": [1, 2, 3, 4, 5],
				"numberList2": [6, 7, 8, 9, 10],
				"relativeURL1": "localhost/first",
				"relativeURL2": "localhost/second",
				"string1": "Live long and prosper",
				"string2": "Hypermedia",
				"stringList1": ["a", "b", "c", "d", "e"],
				"stringList2": ["f", "g", "h", "i", "j"]
			},
			{
				"_embedded": {
					"embedded1": {
						"_embedded": {
							"embedded": {
								"_links": {
									"binary": { "href": "localhost/o/api/b/second-inner-model/first/binary" },
									"embedded": { "href": "localhost/o/api/p/third-inner-model/first" },
									"link": { "href": "community.liferay.com" },
									"linked": { "href": "localhost/o/api/p/third-inner-model/second" },
									"relatedCollection": { "href": "localhost/o/api/p/second-inner-model/first/models" },
									"self": { "href": "localhost/o/api/p/second-inner-model/first" }
								},
								"boolean": false,
								"booleanList": [true],
								"number": 2017,
								"numberList": [1],
								"string": "A string",
								"stringList": ["a"]
							}
						},
						"_links": {
							"binary": { "href": "localhost/o/api/b/first-inner-model/first/binary" },
							"link": { "href": "www.liferay.com" },
							"linked": { "href": "localhost/o/api/p/second-inner-model/second" },
							"relatedCollection": { "href": "localhost/o/api/p/first-inner-model/first/models" },
							"self": { "href": "localhost/o/api/p/first-inner-model/first" }
						},
						"boolean": true,
						"booleanList": [true, false],
						"localizedString": "Translated",
						"number": 42,
						"numberList": [1, 2],
						"string": "A string",
						"stringList": ["a", "b"]
					},
					"nested1": {
						"number1": 2017,
						"string1": "id 1",
						"string2": "string2"
					},
					"nested2": {
						"_embedded": {
							"nested3": {
								"string1": "id 3"
							}
						},
						"_links": {
							"linked3": { "href": "localhost/o/api/p/third-inner-model/fifth" }
						},
						"number1": 42,
						"string1": "3"
					},
					"nestedList": {
						"_embedded": [
							{
								"_embedded": {
									"nested4": {
										"string1": "id 4"
									},
									"nestedList": {
										"_embedded": [
											{
												"number1": 2017
											}, {
												"number1": 2017
											}
										],
										"total": 2
									}
								},
								"number1": 2017,
								"string1": "id 1",
								"string2": "string2"
							}, {
								"number1": 2017,
								"string1": "id 2",
								"string2": "string2",
								"_embedded": {
									"nested4": {
										"string1": "id 4"
									},
									"nestedList": {
										"_embedded": [
											{
												"number1": 2017
											}, {
												"number1": 2017
											}
										],
										"total": 2
									}
								}
							}
						],
						"total": 2
					}
				},
				"_links": {
					"binary1": { "href": "localhost/o/api/b/model/3/binary1" },
					"binary2": { "href": "localhost/o/api/b/model/3/binary2" },
					"embedded2": { "href": "localhost/o/api/p/first-inner-model/second" },
					"link1": { "href": "www.liferay.com" },
					"link2": { "href": "community.liferay.com" },
					"linked1": { "href": "localhost/o/api/p/first-inner-model/third" },
					"linked2": { "href": "localhost/o/api/p/first-inner-model/fourth" },
					"relatedCollection1": { "href": "localhost/o/api/p/model/3/models" },
					"relatedCollection2": { "href": "localhost/o/api/p/model/3/models" },
					"self": { "href": "localhost/o/api/p/model/3" }
				},
				"applicationRelativeURL1": "localhost/o/api/first",
				"boolean1": true,
				"boolean2": false,
				"booleanList1": [true, true, false, false],
				"booleanList2": [true, false, true, false],
				"date1": "2016-06-15T09:00Z",
				"date2": "2017-04-03T18:36Z",
				"localizedString1": "Translated 1",
				"localizedString2": "Translated 2",
				"number1": 2017,
				"number2": 42,
				"numberList1": [1, 2, 3, 4, 5],
				"numberList2": [6, 7, 8, 9, 10],
				"relativeURL1": "localhost/first",
				"relativeURL2": "localhost/second",
				"string1": "Live long and prosper",
				"string2": "Hypermedia",
				"stringList1": ["a", "b", "c", "d", "e"],
				"stringList2": ["f", "g", "h", "i", "j"]
			}
		]
	},
	"_links": {
		"collection": { "href": "localhost/o/api/p/name/id/root" },
		"first": { "href": "localhost/o/api/p/name/id/root?page=1&per_page=3" },
		"last": { "href": "localhost/o/api/p/name/id/root?page=3&per_page=3" },
		"next": { "href": "localhost/o/api/p/name/id/root?page=3&per_page=3" },
		"prev": { "href": "localhost/o/api/p/name/id/root?page=1&per_page=3" },
		"self": { "href": "localhost/o/api/p/name/id/root?page=2&per_page=3" }
	},
	"count": 3,
	"total": 9
}